{
    "powerchat": "PowerChat",
    "powerchat_desc": " ",

    "powerchat_control_char": "Control character",
    "powerchat_control_char_desc": "Select the default control character",
    "powerchat_control_char_!": "!",
    "powerchat_control_char_/": "/",
    "powerchat_control_char_\\": "\\",
    "powerchat_control_char_@": "@",
    "powerchat_control_char_`": "`",
    "powerchat_control_char_$": "$",
    "powerchat_control_char_^": "^",
    "powerchat_control_char_?": "?",
    "powerchat_control_char_,": ",",
    "powerchat_control_char_|": "|",

    "powerchat_load_up": "Load up",
    "powerchat_load_up_desc": "Disable if you want to use PowerChat as a library"
}